Analyse vendanges DADS
…
les emplois permanents : on prend les postes non annexes : ils reprsentent un peu moins de la moiti des emplois mais une forte majorit des jours travaills ;

les emplois saisonniers : on prend les postes annexes. De fait, le constat est invers.

On va se servir de cette diffrence dans lanalyse.

# % des emplois
dads_postes %>% 
  group_by(annee, FILT) %>% 
  count() %>% 
  group_by(annee) %>% 
  mutate(part_n = n /sum(n)) %>% 
  ungroup()

## # A tibble: 22 x 4
##    annee FILT      n part_n
##    <dbl> <fct> <int>  <dbl>
##  1  2005 1       191  0.550
##  2  2005 2       156  0.450
##  3  2006 1       289  0.375
##  4  2006 2       482  0.625
##  5  2007 1       341  0.350
##  6  2007 2       632  0.650
##  7  2008 1       421  0.370
##  8  2008 2       718  0.630
##  9  2009 1       504  0.444
## 10  2009 2       631  0.556
## # ... with 12 more rows
…
# % des jours travaills
seq_empl_jour %>% 
  group_by(annee, FILT) %>% 
  summarise(sum(part_n))

## # A tibble: 22 x 3
## # Groups:   annee [11]
##    annee FILT  `sum(part_n)`
##    <dbl> <fct>         <dbl>
##  1  2005 1            0.902 
##  2  2005 2            0.0979
##  3  2006 1            0.853 
##  4  2006 2            0.147 
##  5  2007 1            0.816 
##  6  2007 2            0.184 
##  7  2008 1            0.826 
##  8  2008 2            0.174 
##  9  2009 1            0.867 
## 10  2009 2            0.133 
## # ... with 12 more rows
…
